{
  "description": "项目配置文件",
  "packOptions": {
    "ignore": []
  },
  "miniprogramRoot": "miniprogram/",
  "cloudfunctionRoot": "cloudfunctions/build/",
  "compileType": "miniprogram",
  "libVersion": "2.21.0",
  "projectname": "labClockIn",
  "setting": {
    "urlCheck": false,
    "es6": true,
    "enhance": true,
    "postcss": true,
    "preloadBackgroundData": false,
    "minified": true,
    "newFeature": false,
    "coverView": true,
    "nodeModules": true,
    "autoAudits": false,
    "showShadowRootInWxmlPanel": true,
    "scopeDataCheck": false,
    "uglifyFileName": false,
    "checkInvalidKey": true,
    "checkSiteMap": true,
    "uploadWithSourceMap": true,
    "compileHotReLoad": true,
    "lazyloadPlaceholderEnable": false,
    "useMultiFrameRuntime": true,
    "useApiHook": true,
    "useApiHostProcess": true,
    "babelSetting": {
      "ignore": [],
      "disablePlugins": [],
      "outputPath": ""
    },
    "enableEngineNative": false,
    "useIsolateContext": true,
    "userConfirmedBundleSwitch": false,
    "packNpmManually": true,
    "packNpmRelationList": [
      {
        "packageJsonPath": "./package.json",
        "miniprogramNpmDistDir": "./miniprogram/"
      }
    ],
    "minifyWXSS": true,
    "disableUseStrict": false,
    "minifyWXML": true,
    "showES6CompileOption": false,
    "useCompilerPlugins": ["typescript", "sass"]
  },
  "simulatorType": "wechat",
  "simulatorPluginLibVersion": {},
  "appid": "wx78621d3adecdf23c",
  "cloudfunctionTemplateRoot": "cloudfunctionTemplate",
  "condition": {}
}
